^zadanie.asm
D:\Projekty\Assemblerowe\ASM-LAB6-ZAD2-V4\Zadanie\Debug\zadanie.obj
^zadanie.asm
D:\Projekty\Assemblerowe\ASM-LAB6-ZAD2-V4\Zadanie\Debug\zadanie.obj
^zadanie.asm
D:\Projekty\Assemblerowe\ASM-LAB6-ZAD2-V4\Zadanie\Debug\zadanie.obj
^zadanie.asm
D:\Projekty\Assemblerowe\ASM-LAB6-ZAD2-V4\Zadanie\Debug\zadanie.obj
^zadanie.asm
D:\Projekty\Assemblerowe\ASM-LAB6-ZAD2-V4\Zadanie\Debug\zadanie.obj
^zadanie.asm
D:\Projekty\Assemblerowe\ASM-LAB6-ZAD2-V4\Zadanie\Debug\zadanie.obj
^zadanie.asm
D:\Projekty\Assemblerowe\ASM-LAB6-ZAD2-V4\Zadanie\Debug\zadanie.obj
